…
```julia
scatter(sensor1_data[:, "azimuth"], sensor1_data[:, loaded_waves_s1[1]],
        legend = false, xlabel = "ϕ solar azimuth", ylabel = "λ 395 nm",
        title = "Azimuth and Highest-Loaded λ 395 nm")
```



Very interesting bivariate characteristics, which could have something to do with the angle with which light hits the sensor.

# Principal Component Regression
Prepare DataFrames for PCR:
5450×10 DataFrame
  Row │ λ581      λ585      λ578      λ575      pc1        pc2        fChl     ⋯
      │ Float64   Float64   Float64   Float64   Float64    Float64    Float64  ⋯
──────┼─────────────────────────────────────────────────────────────────────────
    1 │  4.50204   4.3569    4.51449   4.47702  -20.9288   -3.42005      0.45  ⋯
    2 │  4.00588   3.88152   4.02123   3.99219  -16.5679   -3.33129      0.45
    3 │  3.02644   2.93134   3.03881   3.01685   -8.06414  -2.79424      0.45
    4 │  2.41427   2.33619   2.42291   2.40394   -2.23738  -1.93657      0.41
    5 │  3.46081   3.35699   3.4733    3.44782  -11.8552   -3.09282      0.44  ⋯
    6 │  1.77984   1.72738   1.78592   1.7732     3.57804  -1.19776      0.45
    7 │  1.95211   1.89978   1.95633   1.94106    1.92374  -1.28348      0.41
    8 │  1.63684   1.59235   1.63682   1.62055    4.75483  -0.874427     0.46
  ⋮   │    ⋮         ⋮         ⋮         ⋮          ⋮          ⋮         ⋮     ⋱
 5444 │  9.09125   8.85478   9.1629    9.16148  -54.1377   -3.12805      0.47  ⋯
 5445 │  5.65465   5.50109   5.70242   5.70549  -26.5595   -1.68912      0.46
 5446 │  8.74675   8.54346   8.79045   8.76625  -49.0942    1.69931      0.45
 5447 │  7.86277   7.69318   7.8916    7.86634  -48.5837   -5.52516      0.48
 5448 │  7.52499   7.36416   7.55528   7.53217  -44.4423   -4.07093      0.46  ⋯
 5449 │  4.86951   4.7456    4.90438   4.89938  -20.8424   -1.76945      0.45
 5450 │  4.8626    4.74664   4.89528   4.89425  -25.1522   -6.34717      0.47
                                                 3 columns and 5435 rows omitted
…
